{
  "cmdLine": "'/cvmfs/atlas.cern.ch/repo/sw/software/21.0/Athena/21.0.23/InstallArea/x86_64-slc6-gcc62-opt/share/Reco_tf.py' '--inputHITSFile' '/cvmfs/atlas.cern.ch/repo/benchmarks/hep-workloads/input-data//HITS.atlas.hepworkolad.pool.root' '--conditionsTag' 'default:OFLCOND-MC16-SDR-14' '--DBRelease' '200.0.1' '--digiSeedOffset1' '170' '--digiSeedOffset2' '170' '--inputHighPtMinbiasHitsFile' '/cvmfs/atlas.cern.ch/repo/benchmarks/hep-workloads/input-data//HITS.minbias_highpt.pool.root' '--inputLowPtMinbiasHitsFile' '/cvmfs/atlas.cern.ch/repo/benchmarks/hep-workloads/input-data//HITS.minbias_lowpt.pool.root' '--jobNumber' '1' '--maxEvents' '2' '--numberOfCavernBkg' '0' '--numberOfHighPtMinBias' '0.122680569785' '--numberOfLowPtMinBias' '39.8773194302' '--pileupFinalBunch' '6' '--postExec' 'all:CfgMgr.MessageSvc().setError+=[\"HepMcParticleLink\"];' 'HITtoRDO:job.StandardPileUpToolsAlg.PileUpTools[\"MergeMcEventCollTool\"].OnlySaveSignalTruth=True;job.StandardPileUpToolsAlg.PileUpTools[\"MdtDigitizationTool\"].LastXing=150' 'RDOtoRDOTrigger:from AthenaCommon.AlgSequence import AlgSequence;AlgSequence().LVL1TGCTrigger.TILEMU=True;from AthenaCommon.AppMgr import ServiceMgr;import MuonRPC_Cabling.MuonRPC_CablingConfig;ServiceMgr.MuonRPC_CablingSvc.RPCTriggerRoadsfromCool=False' 'ESDtoAOD:fixedAttrib=[s if \"CONTAINER_SPLITLEVEL = +\\\\'99\\\\'\" not in s else \"\" for s in svcMgr.AthenaPoolCnvSvc.PoolAttributes];svcMgr.AthenaPoolCnvSvc.PoolAttributes=fixedAttrib' '--postInclude' 'default:RecJobTransforms/UseFrontier.py' '--preExec' 'all:rec.Commissioning.set_Value_and_Lock(True);from AthenaCommon.BeamFlags import jobproperties;jobproperties.Beam.numberOfCollisions.set_Value_and_Lock(20.0);from LArROD.LArRODFlags import larRODFlags;larRODFlags.NumberOfCollisions.set_Value_and_Lock(20);larRODFlags.nSamples.set_Value_and_Lock(4);larRODFlags.doOFCPileupOptimization.set_Value_and_Lock(True);larRODFlags.firstSample.set_Value_and_Lock(0);larRODFlags.useHighestGainAutoCorr.set_Value_and_Lock(True)' 'HITtoRDO:userRunLumiOverride={\"run\":222525, \"startmu\":40.0, \"endmu\":41.0, \"stepmu\":1.0, \"startlb\":1, \"timestamp\": 1376703331}' 'RAWtoESD:from CaloRec.CaloCellFlags import jobproperties;jobproperties.CaloCellFlags.doLArCellEmMisCalib=False' 'ESDtoAOD:TriggerFlags.AODEDMSet=\"AODSLIM\"' 'ESDtoAOD:TriggerFlags.AODEDMSet=\"AODSLIM\"' '--geometryVersion' 'default:ATLAS-R2-2016-01-00-01' '--preInclude' 'HITtoRDO:Digitization/ForceUseOfPileUpTools.py,SimulationJobOptions/preInlcude.PileUpBunchTrainsMC16c_2017_Config1.py,RunDependentSimData/configLumi_muRange.py' '--ignoreErrors' 'True' '--mts' 'ESD:0' '--steering' 'RAWtoESD:in-RDO,in+RDO_TRIG,in-BS' '--outputRDOFile=myRDO.pool.root' '--outputESDFile=myESD.pool.root' '--outputAODFile=myAOD.pool.root'", 
  "created": "2019-08-04T20:03:34", 
  "executor": [
    {
      "asetup": null, 
      "errMsg": "", 
      "exeConfig": {
        "inputs": [
          "HITS"
        ], 
        "outputs": [
          "RDO"
        ], 
        "script": "athena.py", 
        "substep": "h2r"
      }, 
      "logfileReport": {
        "countSummary": {
          "CATASTROPHE": 0, 
          "CRITICAL": 0, 
          "DEBUG": 3, 
          "ERROR": 0, 
          "FATAL": 0, 
          "IGNORED": 0, 
          "INFO": 11131, 
          "UNKNOWN": 1532, 
          "VERBOSE": 0, 
          "WARNING": 18
        }, 
        "details": {}
      }, 
      "metaData": {
        "[IOVDbGlobalTag": "OFLCOND-MC16-SDR-14]"
      }, 
      "name": "HITtoRDO", 
      "rc": 0, 
      "statusOK": true, 
      "validation": true
    }, 
    {
      "asetup": null, 
      "errMsg": "", 
      "exeConfig": {
        "inputs": [
          "RDO"
        ], 
        "outputs": [
          "RDO_TRIG"
        ], 
        "script": "athena.py", 
        "substep": "r2t"
      }, 
      "logfileReport": {
        "countSummary": {
          "CATASTROPHE": 0, 
          "CRITICAL": 0, 
          "DEBUG": 3, 
          "ERROR": 0, 
          "FATAL": 0, 
          "IGNORED": 0, 
          "INFO": 58329, 
          "UNKNOWN": 68596, 
          "VERBOSE": 1, 
          "WARNING": 129
        }, 
        "details": {}
      }, 
      "metaData": {}, 
      "name": "RDOtoRDOTrigger", 
      "rc": 0, 
      "statusOK": true, 
      "validation": true
    }, 
    {
      "asetup": null, 
      "errMsg": "", 
      "exeConfig": {
        "inputs": [
          "RDO_TRIG"
        ], 
        "outputs": [
          "ESD"
        ], 
        "script": "athena.py", 
        "substep": "r2e"
      }, 
      "logfileReport": {
        "countSummary": {
          "CATASTROPHE": 0, 
          "CRITICAL": 0, 
          "DEBUG": 0, 
          "ERROR": 0, 
          "FATAL": 0, 
          "IGNORED": 0, 
          "INFO": 18627, 
          "UNKNOWN": 4111, 
          "VERBOSE": 1, 
          "WARNING": 1113
        }, 
        "details": {}
      }, 
      "metaData": {}, 
      "name": "RAWtoESD", 
      "rc": 0, 
      "statusOK": true, 
      "validation": true
    }, 
    {
      "asetup": null, 
      "errMsg": "", 
      "exeConfig": {
        "inputs": [
          "ESD"
        ], 
        "outputs": [
          "AOD"
        ], 
        "script": "athena.py", 
        "substep": "e2a"
      }, 
      "logfileReport": {
        "countSummary": {
          "CATASTROPHE": 0, 
          "CRITICAL": 0, 
          "DEBUG": 0, 
          "ERROR": 0, 
          "FATAL": 0, 
          "IGNORED": 0, 
          "INFO": 6268, 
          "UNKNOWN": 1751, 
          "VERBOSE": 0, 
          "WARNING": 80
        }, 
        "details": {}
      }, 
      "metaData": {}, 
      "name": "ESDtoAOD", 
      "rc": 0, 
      "statusOK": true, 
      "validation": true
    }
  ], 
  "exitAcronym": "OK", 
  "exitCode": 0, 
  "exitMsg": "OK", 
  "exitMsgExtra": "", 
  "files": {
    "input": [
      {
        "dataset": null, 
        "nentries": 5, 
        "subFiles": [
          {
            "file_guid": "89A322CE-CF4F-4941-8AD1-5B59361D2580", 
            "name": "HITS.atlas.hepworkolad.pool.root"
          }
        ], 
        "type": "HITS"
      }
    ], 
    "output": [
      {
        "argName": "outputAODFile", 
        "dataset": null, 
        "subFiles": [
          {
            "file_guid": "C4684B0C-DB48-7D4F-96BE-D5BBAA58B259", 
            "file_size": 2392755, 
            "name": "myAOD.pool.root", 
            "nentries": 2
          }
        ], 
        "type": "AOD"
      }, 
      {
        "argName": "outputESDFile", 
        "dataset": null, 
        "subFiles": [
          {
            "file_guid": "06B3D077-D38C-3749-AF02-C349A90438E7", 
            "file_size": 15866660, 
            "name": "myESD.pool.root", 
            "nentries": 2
          }
        ], 
        "type": "ESD"
      }, 
      {
        "argName": "outputRDOFile", 
        "dataset": null, 
        "subFiles": [
          {
            "file_guid": "3ACEB7A0-02B4-FD4A-92EE-87249D4050C5", 
            "file_size": 15269456, 
            "name": "myRDO.pool.root", 
            "nentries": 2
          }
        ], 
        "type": "RDO"
      }
    ]
  }, 
  "name": "Reco_tf", 
  "reportVersion": "2.0.9", 
  "resource": {
    "dbDataTotal": 352211270, 
    "dbTimeTotal": 169.16, 
    "executor": {
      "ESDtoAOD": {
        "cpuTime": 150.34, 
        "dbData": 9585865, 
        "dbTime": 3.05, 
        "memory": {
          "Avg": {
            "avgPSS": 385488, 
            "avgRSS": 428390, 
            "avgSwap": 0, 
            "avgVMEM": 1036822, 
            "rateRBYTES": 12987737, 
            "rateRCHAR": 1100135, 
            "rateWBYTES": 82311, 
            "rateWCHAR": 133364
          }, 
          "Max": {
            "maxPSS": 848892, 
            "maxRSS": 861088, 
            "maxSwap": 0, 
            "maxVMEM": 2097840, 
            "totRBYTES": 2039074816, 
            "totRCHAR": 172721295, 
            "totWBYTES": 12922880, 
            "totWCHAR": 20938272
          }
        }, 
        "nevents": 2, 
        "postExe": {
          "cpuTime": 1.36, 
          "wallTime": 0.91
        }, 
        "preExe": {
          "cpuTime": 0.62, 
          "wallTime": 2.0
        }, 
        "total": {
          "cpuTime": 152.32, 
          "wallTime": 190.46
        }, 
        "validation": {
          "cpuTime": 0.0, 
          "wallTime": 0.5
        }, 
        "wallTime": 187.05
      }, 
      "HITtoRDO": {
        "cpuTime": 207.74, 
        "dbData": 31049870, 
        "dbTime": 9.43, 
        "memory": {
          "Avg": {
            "avgPSS": 1011285, 
            "avgRSS": 1035452, 
            "avgSwap": 0, 
            "avgVMEM": 1702766, 
            "rateRBYTES": 11007380, 
            "rateRCHAR": 2232228, 
            "rateWBYTES": 55609, 
            "rateWCHAR": 66637
          }, 
          "Max": {
            "maxPSS": 1778665, 
            "maxRSS": 1781592, 
            "maxSwap": 0, 
            "maxVMEM": 2425360, 
            "totRBYTES": 3093073920, 
            "totRCHAR": 627256296, 
            "totWBYTES": 15626240, 
            "totWCHAR": 18725010
          }
        }, 
        "nevents": 2, 
        "postExe": {
          "cpuTime": 1.77, 
          "wallTime": 0.91
        }, 
        "preExe": {
          "cpuTime": 0.6, 
          "wallTime": 1.74
        }, 
        "total": {
          "cpuTime": 210.11, 
          "wallTime": 295.49
        }, 
        "validation": {
          "cpuTime": 0.0, 
          "wallTime": 2.26
        }, 
        "wallTime": 290.58
      }, 
      "RAWtoESD": {
        "cpuTime": 229.23, 
        "dbData": 36140493, 
        "dbTime": 29.11, 
        "memory": {
          "Avg": {
            "avgPSS": 715396, 
            "avgRSS": 736459, 
            "avgSwap": 0, 
            "avgVMEM": 1368252, 
            "rateRBYTES": 10138777, 
            "rateRCHAR": 1708083, 
            "rateWBYTES": 233799, 
            "rateWCHAR": 261959
          }, 
          "Max": {
            "maxPSS": 2114266, 
            "maxRSS": 2117176, 
            "maxSwap": 0, 
            "maxVMEM": 3010344, 
            "totRBYTES": 3173437440, 
            "totRCHAR": 534630213, 
            "totWBYTES": 73179136, 
            "totWCHAR": 81993361
          }
        }, 
        "nevents": 2, 
        "postExe": {
          "cpuTime": 1.84, 
          "wallTime": 0.91
        }, 
        "preExe": {
          "cpuTime": 0.58, 
          "wallTime": 2.32
        }, 
        "total": {
          "cpuTime": 231.65, 
          "wallTime": 320.43
        }, 
        "validation": {
          "cpuTime": 0.0, 
          "wallTime": 2.95
        }, 
        "wallTime": 314.25
      }, 
      "RDOtoRDOTrigger": {
        "cpuTime": 390.64, 
        "dbData": 99329407, 
        "dbTime": 42.99, 
        "memory": {
          "Avg": {
            "avgPSS": 1304136, 
            "avgRSS": 1314322, 
            "avgSwap": 0, 
            "avgVMEM": 2090205, 
            "rateRBYTES": 8605704, 
            "rateRCHAR": 1757371, 
            "rateWBYTES": 356815, 
            "rateWCHAR": 373911
          }, 
          "Max": {
            "maxPSS": 3222454, 
            "maxRSS": 3225348, 
            "maxSwap": 0, 
            "maxVMEM": 4471704, 
            "totRBYTES": 4027469824, 
            "totRCHAR": 822449769, 
            "totWBYTES": 166989824, 
            "totWCHAR": 174990759
          }
        }, 
        "nevents": 2, 
        "postExe": {
          "cpuTime": 2.45, 
          "wallTime": 0.9
        }, 
        "preExe": {
          "cpuTime": 0.61, 
          "wallTime": 2.16
        }, 
        "total": {
          "cpuTime": 393.7, 
          "wallTime": 496.97
        }, 
        "validation": {
          "cpuTime": 0.0, 
          "wallTime": 9.08
        }, 
        "wallTime": 484.83
      }
    }, 
    "machine": {
      "cpu_family": "6", 
      "linux_distribution": [
        "Scientific Linux CERN SLC", 
        "6.10", 
        "Carbon"
      ], 
      "model": "60", 
      "model_name": "Intel Core Processor (Haswell, no TSX, IBRS)", 
      "node": "0427703d6b51", 
      "platform": "Linux-3.10.0-957.21.3.el7.x86_64-x86_64-with-redhat-6.10-Carbon"
    }, 
    "transform": {
      "cpuEfficiency": 0.6376, 
      "cpuPWEfficiency": 0.6376, 
      "cpuTime": 35.12, 
      "cpuTimeTotal": 987.78, 
      "externalCpuTime": 10.25, 
      "inFileValidation": {
        "cpuTime": 0.34, 
        "wallTime": 257.87
      }, 
      "outFileValidation": {
        "cpuTime": 0.0, 
        "wallTime": 5.02
      }, 
      "processedEvents": 2, 
      "reportGeneration": {
        "cpuTime": 0.07, 
        "wallTime": 3.36
      }, 
      "transformSetup": {
        "cpuTime": 0.0, 
        "wallTime": 19.37
      }, 
      "trfPredata": null, 
      "wallTime": 1588.98
    }
  }
}