{"run_info": {"copies":4 , "threads_per_copy":1 , "events_per_thread" : 1 }, 
"report": {"wl-scores": {"gen-sim": 0.0606} , 
"wl-stats": {"avg": 0.0152, "median": 0.0152, "min": 0.0152, "max": 0.0152, "count": 4} , 
"log": "ok"}, 
"app": {"version":"v0.15","description":"ALICE pp GEN-SIM",
    "cvmfs_checksum":"9986a9a83745b416a510788e1f35d807",
    "bmkdata_checksum":"b94489e16c0a77f2a0a9aaf333260a96",
    "bmk_checksum":"6c5c2fd1379388c9b1cbd3888e5ecbd3",
    "containment": "singularity"} 
}
